Lab_5/0-400_OL_StepResponse.csv

Record Length,2500,Points,-16.7999994E-3,5.03999996,
Sample Interval,39.99999899E-6,s,-16.7599991E-3,5.03999996,
Trigger Point,419.999995634,Samples,-16.7199988E-3,5.03999996,
,,,-16.6799985E-3,5.03999996,
,,,-16.6400000E-3,5.03999996,
,,,-16.5999997E-3,5.03999996,
Source,CH1,,-16.5599994E-3,5.03999996,
Vertical Units,Volts,,-16.5199991E-3,5.03999996,
Vertical Scale,499.999988824E-3,,-16.4799988E-3,5.05999994,
Vertical Offset,0,,-16.4399985E-3,5.05999994,
Horizontal Units,s,,-16.4000001E-3,5.05999994,
Horizontal Scale,9.999999747E-3,,-16.3599998E-3,5.05999994,
Pt Fmt,Y,,-16.3199995E-3,5.05999994,
Yzero,-11.5200000,,-16.2799992E-3,5.05999994,
Probe Atten,10.0000000,,-16.2399989E-3,5.03999996,
,,,-16.1999986E-3,5.01999998,
Note,TDS 2022B - 1:27:50 PM   6/2/2022,,-16.1600001E-3,5.03999996,
,,,-16.1199998E-3,5.03999996,
,,,-16.0799995E-3,5.05999994,
,,,-16.0399992E-3,5.07999992,
,,,-15.9999989E-3,5.03999996,
,,,-15.9599986E-3,5.05999994,
,,,-15.9200002E-3,5.03999996,
,,,-15.8799998E-3,5.05999994,
,,,-15.8399995E-3,5.05999994,
,,,-15.7999992E-3,5.03999996,
,,,-15.7599989E-3,5.03999996,
,,,-15.7199986E-3,5.03999996,
,,,-15.6800002E-3,5.01999998,
,,,-15.6399999E-3,5.05999994,
,,,-15.5999996E-3,5.03999996,
,,,-15.5599993E-3,5.05999994,
,,,-15.5199990E-3,5.05999994,
,,,-15.4799996E-3,5.03999996,
,,,-15.4399993E-3,5.03999996,
,,,-15.3999990E-3,5.03999996,
,,,-15.3599996E-3,5.03999996,
,,,-15.3199993E-3,5.07999992,
,,,-15.2799990E-3,5.05999994,
,,,-15.2399996E-3,5.03999996,
,,,-15.1999993E-3,5.03999996,
,,,-15.1599990E-3,5.03999996,
,,,-15.1199996E-3,5.05999994,
,,,-15.0799993E-3,5.05999994,
,,,-15.0399990E-3,5.07999992,
,,,-14.9999997E-3,5.05999994,
,,,-14.9599994E-3,5.03999996,
,,,-14.9199991E-3,5.07999992,
,,,-14.8799997E-3,5.05999994,
,,,-14.8399994E-3,5.03999996,
,,,-14.7999991E-3,5.07999992,
,,,-14.7599997E-3,5.03999996,
,,,-14.7199994E-3,5.03999996,
,,,-14.6799991E-3,5.01999998,
,,,-14.6399997E-3,5.01999998,
,,,-14.5999994E-3,5.03999996,
,,,-14.5599991E-3,5.05999994,
,,,-14.5199997E-3,5.03999996,
,,,-14.4799994E-3,5.03999996,
,,,-14.4399991E-3,5.03999996,
,,,-14.3999998E-3,5.05999994,
,,,-14.3599994E-3,5.05999994,
,,,-14.3199991E-3,5.05999994,
,,,-14.2799998E-3,5.03999996,
,,,-14.2399995E-3,5.03999996,
,,,-14.1999992E-3,5.03999996,
,,,-14.1599998E-3,5.05999994,
,,,-14.1199995E-3,5.03999996,
,,,-14.0799992E-3,5.05999994,
,,,-14.0399998E-3,5.03999996,
,,,-13.9999995E-3,5.05999994,
,,,-13.9599992E-3,5.05999994,
,,,-13.9199998E-3,5.05999994,
,,,-13.8799995E-3,5.05999994,
,,,-13.8399992E-3,5.05999994,
,,,-13.7999998E-3,5.03999996,
,,,-13.7599995E-3,5.05999994,
,,,-13.7199992E-3,5.03999996,
,,,-13.6799999E-3,5.03999996,
,,,-13.6399996E-3,5.07999992,
,,,-13.5999992E-3,5.05999994,
,,,-13.5599999E-3,5.05999994,
,,,-13.5199996E-3,5.03999996,
,,,-13.4799993E-3,5.05999994,
,,,-13.4399999E-3,5.03999996,
,,,-13.3999996E-3,5.07999992,
,,,-13.3599993E-3,5.05999994,
,,,-13.3199999E-3,5.05999994,
,,,-13.2799996E-3,5.05999994,
,,,-13.2399993E-3,5.03999996,
,,,-13.1999999E-3,5.05999994,
,,,-13.1599996E-3,5.05999994,
,,,-13.1199993E-3,5.03999996,
,,,-13.0799999E-3,5.05999994,
,,,-13.0399996E-3,5.05999994,
,,,-12.9999993E-3,5.05999994,
,,,-12.9600000E-3,5.09999990,
,,,-12.9199997E-3,5.05999994,
,,,-12.8799994E-3,5.07999992,
,,,-12.8399990E-3,5.05999994,
,,,-12.7999997E-3,5.05999994,
,,,-12.7599994E-3,5.01999998,
,,,-12.7199991E-3,5.03999996,
,,,-12.6799997E-3,5.05999994,
,,,-12.6399994E-3,5.05999994,
,,,-12.5999991E-3,5.07999992,
,,,-12.5599997E-3,5.05999994,
,,,-12.5199994E-3,5.03999996,
,,,-12.4799991E-3,5.03999996,
,,,-12.4399997E-3,5.05999994,
,,,-12.3999994E-3,5.01999998,
,,,-12.3599991E-3,5.05999994,
,,,-12.3199997E-3,5.03999996,
,,,-12.2799994E-3,5.03999996,
,,,-12.2399991E-3,5.03999996,
,,,-12.1999998E-3,5.05999994,
,,,-12.1599995E-3,5.03999996,
,,,-12.1199992E-3,5.01999998,
,,,-12.0799998E-3,5.03999996,
,,,-12.0399995E-3,5.05999994,
,,,-11.9999992E-3,5.03999996,
,,,-11.9599998E-3,5.01999998,
,,,-11.9199995E-3,5.03999996,
,,,-11.8799992E-3,5.03999996,
,,,-11.8399998E-3,5.07999992,
,,,-11.7999995E-3,5.03999996,
,,,-11.7599992E-3,5.01999998,
,,,-11.7199998E-3,5.03999996,
,,,-11.6799995E-3,5.05999994,
,,,-11.6399992E-3,5.03999996,
,,,-11.5999999E-3,5.03999996,
,,,-11.5599995E-3,5.03999996,
,,,-11.5199992E-3,5.01999998,
,,,-11.4799999E-3,5.03999996,
,,,-11.4399996E-3,5.07999992,
,,,-11.3999993E-3,5.03999996,
,,,-11.3599999E-3,5.05999994,
,,,-11.3199996E-3,5.03999996,
,,,-11.2799993E-3,5.03999996,
,,,-11.2399999E-3,5.03999996,
,,,-11.1999996E-3,5.03999996,
,,,-11.1599993E-3,5.03999996,
,,,-11.1199999E-3,5.05999994,
,,,-11.0799996E-3,5.03999996,
,,,-11.0399993E-3,5.03999996,
,,,-10.9999999E-3,5.03999996,
,,,-10.9599996E-3,5.03999996,
,,,-10.9199993E-3,5.03999996,
,,,-10.8800000E-3,5.05999994,
,,,-10.8399997E-3,5.05999994,
,,,-10.7999993E-3,5.07999992,
,,,-10.7600000E-3,5.01999998,
,,,-10.7199997E-3,5.05999994,
,,,-10.6799994E-3,5.03999996,
,,,-10.6400000E-3,5.05999994,
,,,-10.5999997E-3,5.03999996,
,,,-10.5599994E-3,5.01999998,
,,,-10.5200000E-3,5.05999994,
,,,-10.4799997E-3,5.03999996,
,,,-10.4399994E-3,5.07999992,
,,,-10.3999991E-3,5.03999996,
,,,-10.3599997E-3,5.05999994,
,,,-10.3199994E-3,5.03999996,
,,,-10.2799991E-3,5.03999996,
,,,-10.2399997E-3,5.05999994,
,,,-10.1999994E-3,5.03999996,
,,,-10.1599991E-3,5.05999994,
,,,-10.1199998E-3,5.05999994,
,,,-10.0799995E-3,5.07999992,
,,,-10.0399991E-3,5.05999994,
,,,-9.999999776E-3,5.03999996,
,,,-9.959999472E-3,5.03999996,
,,,-9.919999167E-3,5.03999996,
,,,-9.879999794E-3,5.01999998,
,,,-9.839999489E-3,5.05999994,
,,,-9.799999185E-3,5.05999994,
,,,-9.759999812E-3,5.03999996,
,,,-9.719999507E-3,5.07999992,
,,,-9.679999202E-3,5.05999994,
,,,-9.639999829E-3,5.07999992,
,,,-9.599999525E-3,5.03999996,
,,,-9.559999220E-3,5.05999994,
,,,-9.519999847E-3,5.03999996,
,,,-9.479999542E-3,5.03999996,
,,,-9.439999238E-3,5.03999996,
,,,-9.399999864E-3,5.05999994,
,,,-9.359999560E-3,5.03999996,
,,,-9.319999255E-3,5.03999996,
,,,-9.279999882E-3,5.03999996,
,,,-9.239999577E-3,5.07999992,
,,,-9.199999273E-3,5.03999996,
,,,-9.159999900E-3,5.05999994,
,,,-9.119999595E-3,5.03999996,
,,,-9.079999290E-3,5.03999996,
,,,-9.039999917E-3,5.07999992,
,,,-8.999999613E-3,5.01999998,
,,,-8.959999308E-3,5.03999996,
,,,-8.919999935E-3,5.05999994,
,,,-8.879999630E-3,5.03999996,
,,,-8.839999326E-3,5.05999994,
,,,-8.799999952E-3,5.03999996,
,,,-8.759999648E-3,5.07999992,
,,,-8.719999343E-3,5.07999992,
,,,-8.679999970E-3,5.01999998,
,,,-8.639999665E-3,5.03999996,
,,,-8.599999361E-3,5.03999996,
,,,-8.559999987E-3,5.03999996,
,,,-8.519999683E-3,5.03999996,
,,,-8.479999378E-3,5.03999996,
,,,-8.440000005E-3,5.05999994,
,,,-8.399999700E-3,5.03999996,
,,,-8.359999396E-3,5.03999996,
,,,-8.320000023E-3,5.07999992,
,,,-8.279999718E-3,5.03999996,
,,,-8.239999413E-3,5.07999992,
,,,-8.200000040E-3,5.05999994,
,,,-8.159999736E-3,5.03999996,
,,,-8.119999431E-3,5.03999996,
,,,-8.080000058E-3,5.05999994,
,,,-8.039999753E-3,5.03999996,
,,,-7.999999449E-3,5.03999996,
,,,-7.960000075E-3,5.03999996,
,,,-7.919999771E-3,5.03999996,
,,,-7.879999466E-3,5.05999994,
,,,-7.840000093E-3,5.03999996,
,,,-7.799999788E-3,5.03999996,
,,,-7.759999484E-3,5.03999996,
,,,-7.719999645E-3,5.03999996,
,,,-7.679999806E-3,5.03999996,
,,,-7.639999501E-3,5.05999994,
,,,-7.599999662E-3,5.05999994,
,,,-7.559999824E-3,5.03999996,
,,,-7.519999519E-3,5.05999994,
,,,-7.479999680E-3,5.03999996,
,,,-7.439999841E-3,5.07999992,
,,,-7.399999537E-3,5.03999996,
,,,-7.35999970E-3,5.05999994,
,,,-7.31999986E-3,5.03999996,
,,,-7.27999955E-3,5.05999994,
,,,-7.23999972E-3,5.03999996,
,,,-7.19999988E-3,5.03999996,
,,,-7.15999957E-3,5.03999996,
,,,-7.11999973E-3,5.05999994,
,,,-7.07999943E-3,5.05999994,
,,,-7.03999959E-3,5.05999994,
,,,-6.99999975E-3,5.01999998,
,,,-6.95999945E-3,5.01999998,
,,,-6.91999961E-3,5.05999994,
,,,-6.87999977E-3,5.05999994,
,,,-6.83999946E-3,5.03999996,
,,,-6.79999962E-3,5.03999996,
,,,-6.75999979E-3,5.03999996,
,,,-6.71999948E-3,5.05999994,
,,,-6.67999964E-3,5.03999996,
,,,-6.63999980E-3,5.09999990,
,,,-6.59999950E-3,5.05999994,
,,,-6.55999966E-3,5.05999994,
,,,-6.51999982E-3,5.03999996,
,,,-6.47999952E-3,5.01999998,
,,,-6.43999968E-3,5.07999992,
,,,-6.39999984E-3,5.05999994,
,,,-6.35999953E-3,5.05999994,
,,,-6.31999969E-3,5.05999994,
,,,-6.27999986E-3,5.05999994,
,,,-6.23999955E-3,5.05999994,
,,,-6.19999971E-3,5.05999994,
,,,-6.15999987E-3,5.05999994,
,,,-6.11999957E-3,5.03999996,
,,,-6.07999973E-3,5.05999994,
,,,-6.03999989E-3,5.03999996,
,,,-5.99999959E-3,5.01999998,
,,,-5.95999975E-3,5.07999992,
,,,-5.91999944E-3,5.07999992,
,,,-5.87999960E-3,5.07999992,
,,,-5.83999977E-3,5.05999994,
,,,-5.79999946E-3,5.09999990,
,,,-5.75999962E-3,5.05999994,
,,,-5.71999978E-3,5.07999992,
,,,-5.67999948E-3,5.07999992,
,,,-5.63999964E-3,5.07999992,
,,,-5.59999980E-3,5.09999990,
,,,-5.55999950E-3,5.11999989,
,,,-5.51999966E-3,5.07999992,
,,,-5.47999982E-3,5.09999990,
,,,-5.43999951E-3,5.05999994,
,,,-5.39999967E-3,5.05999994,
,,,-5.35999984E-3,5.09999990,
,,,-5.31999953E-3,5.09999990,
,,,-5.27999969E-3,5.07999992,
,,,-5.23999985E-3,5.09999990,
,,,-5.19999955E-3,5.07999992,
,,,-5.15999971E-3,5.09999990,
,,,-5.11999987E-3,5.07999992,
,,,-5.07999957E-3,5.07999992,
,,,-5.03999973E-3,5.09999990,
,,,-4.99999989E-3,5.05999994,
,,,-4.95999958E-3,5.07999992,
,,,-4.91999974E-3,5.09999990,
,,,-4.87999991E-3,5.07999992,
,,,-4.83999960E-3,5.07999992,
,,,-4.79999976E-3,5.09999990,
,,,-4.75999992E-3,5.07999992,
,,,-4.71999962E-3,5.07999992,
,,,-4.67999978E-3,5.07999992,
,,,-4.63999994E-3,5.09999990,
,,,-4.59999964E-3,5.09999990,
,,,-4.55999980E-3,5.09999990,
,,,-4.51999949E-3,5.03999996,
,,,-4.47999965E-3,5.07999992,
,,,-4.43999982E-3,5.09999990,
,,,-4.39999951E-3,5.09999990,
,,,-4.35999967E-3,5.07999992,
,,,-4.31999983E-3,5.05999994,
,,,-4.27999953E-3,5.05999994,
,,,-4.23999969E-3,5.07999992,
,,,-4.19999985E-3,5.07999992,
,,,-4.15999955E-3,5.05999994,
,,,-4.11999971E-3,5.07999992,
,,,-4.07999987E-3,5.05999994,
,,,-4.03999956E-3,5.03999996,
,,,-3.99999972E-3,5.23999977,
,,,-3.95999989E-3,5.23999977,
,,,-3.91999958E-3,5.27999973,
,,,-3.87999974E-3,5.23999977,
,,,-3.83999967E-3,5.23999977,
,,,-3.79999983E-3,5.21999979,
,,,-3.75999976E-3,5.23999977,
,,,-3.71999969E-3,5.23999977,
,,,-3.67999962E-3,5.25999975,
,,,-3.63999978E-3,5.25999975,
,,,-3.59999971E-3,5.25999975,
,,,-3.55999963E-3,5.23999977,
,,,-3.51999979E-3,5.23999977,
,,,-3.47999972E-3,5.21999979,
,,,-3.43999965E-3,5.25999975,
,,,-3.39999981E-3,5.25999975,
,,,-3.35999974E-3,5.23999977,
,,,-3.31999967E-3,5.23999977,
,,,-3.27999983E-3,5.23999977,
,,,-3.23999976E-3,5.21999979,
,,,-3.19999969E-3,5.21999979,
,,,-3.15999985E-3,5.23999977,
,,,-3.11999978E-3,5.23999977,
,,,-3.07999970E-3,5.23999977,
,,,-3.03999986E-3,5.23999977,
,,,-2.99999979E-3,5.23999977,
,,,-2.95999972E-3,5.23999977,
,,,-2.91999965E-3,5.25999975,
,,,-2.87999981E-3,5.25999975,
,,,-2.83999974E-3,5.23999977,
,,,-2.79999967E-3,5.25999975,
,,,-2.75999983E-3,5.23999977,
,,,-2.71999976E-3,5.25999975,
,,,-2.6799997E-3,5.23999977,
,,,-2.6399998E-3,5.25999975,
,,,-2.5999998E-3,5.23999977,
,,,-2.5599997E-3,5.23999977,
,,,-2.5199999E-3,5.25999975,
,,,-2.4799998E-3,5.23999977,
,,,-2.4399997E-3,5.25999975,
,,,-2.3999996E-3,5.23999977,
,,,-2.3599998E-3,5.23999977,
,,,-2.3199997E-3,5.23999977,
,,,-2.2799997E-3,5.23999977,
,,,-2.2399998E-3,5.23999977,
,,,-2.1999998E-3,5.21999979,
,,,-2.1599997E-3,5.23999977,
,,,-2.1199998E-3,5.25999975,
,,,-2.0799998E-3,5.21999979,
,,,-2.0399997E-3,5.21999979,
,,,-1.9999999E-3,5.44000006,
,,,-1.9599998E-3,5.46000004,
,,,-1.9199997E-3,5.46000004,
,,,-1.8799998E-3,5.48000002,
,,,-1.8399998E-3,5.48000002,
,,,-1.7999997E-3,5.48000002,
,,,-1.7599998E-3,5.46000004,
,,,-1.7199998E-3,5.46000004,
,,,-1.6799998E-3,5.48000002,
,,,-1.6399998E-3,5.46000004,
,,,-1.5999998E-3,5.48000002,
,,,-1.5599998E-3,5.51999998,
,,,-1.5199998E-3,5.50000000,
,,,-1.4799997E-3,5.46000004,
,,,-1.4399998E-3,5.48000002,
,,,-1.3999998E-3,5.48000002,
,,,-1.3599998E-3,5.50000000,
,,,-1.3199998E-3,5.48000002,
,,,-1.2799997E-3,5.46000004,
,,,-1.2399998E-3,5.44000006,
,,,-1.1999998E-3,5.44000006,
,,,-1.1599998E-3,5.46000004,
,,,-1.1199998E-3,5.46000004,
,,,-1.0799998E-3,5.48000002,
,,,-1.0399998E-3,5.48000002,
,,,-999.999814667E-6,5.48000002,
,,,-959.999801125E-6,5.48000002,
,,,-919.999787584E-6,5.48000002,
,,,-879.999832250E-6,5.48000002,
,,,-839.999818709E-6,5.48000002,
,,,-799.999805167E-6,5.48000002,
,,,-759.999791626E-6,5.46000004,
,,,-719.999778084E-6,5.46000004,
,,,-679.999822751E-6,5.44000006,
,,,-639.999809209E-6,5.48000002,
,,,-599.999795668E-6,5.48000002,
,,,-559.999840334E-6,5.48000002,
,,,-519.999826793E-6,5.48000002,
,,,-479.999813251E-6,5.48000002,
,,,-439.999799710E-6,5.46000004,
,,,-399.99981527E-6,5.48000002,
,,,-359.99983083E-6,5.48000002,
,,,-319.99981729E-6,5.48000002,
,,,-279.99980375E-6,5.46000004,
,,,-239.99981931E-6,5.46000004,
,,,-199.99982032E-6,5.46000004,
,,,-159.99982134E-6,5.48000002,
,,,-119.9998223E-6,5.48000002,
,,,-79.999823356E-6,5.46000004,
,,,-39.99982437E-6,5.44000006,
,,,174.62298203E-12,5.69999981,
,,,40.00017361E-6,5.73999977,
,,,80.000172602E-6,5.71999979,
,,,120.0001716E-6,5.77999973,
,,,160.00017058E-6,5.69999981,
,,,200.00016957E-6,5.71999979,
,,,240.00016856E-6,5.71999979,
,,,280.00015300E-6,5.71999979,
,,,320.00016654E-6,5.71999979,
,,,360.00018008E-6,5.69999981,
,,,400.00016452E-6,5.71999979,
,,,440.000148956E-6,5.73999977,
,,,480.000162497E-6,5.71999979,
,,,520.000176039E-6,5.75999975,
,,,560.000189580E-6,5.71999979,
,,,600.000144914E-6,5.71999979,
,,,640.000158455E-6,5.71999979,
,,,680.000171997E-6,5.71999979,
,,,720.000127330E-6,5.69999981,
,,,760.000140872E-6,5.71999979,
,,,800.000154413E-6,5.71999979,
,,,840.000167955E-6,5.71999979,
,,,880.000181496E-6,5.69999981,
,,,920.000136830E-6,5.69999981,
,,,960.000150371E-6,5.71999979,
,,,1.0000002E-3,5.71999979,
,,,1.0400001E-3,5.73999977,
,,,1.0800002E-3,5.71999979,
,,,1.1200001E-3,5.73999977,
,,,1.1600001E-3,5.71999979,
,,,1.2000002E-3,5.71999979,
,,,1.2400001E-3,5.69999981,
,,,1.2800002E-3,5.71999979,
,,,1.3200002E-3,5.71999979,
,,,1.3600001E-3,5.71999979,
,,,1.4000002E-3,5.67999983,
,,,1.4400001E-3,5.71999979,
,,,1.4800001E-3,5.73999977,
,,,1.5200002E-3,5.67999983,
,,,1.5600001E-3,5.69999981,
,,,1.6000001E-3,5.71999979,
,,,1.6400001E-3,5.73999977,
,,,1.6800001E-3,5.67999983,
,,,1.7200002E-3,5.67999983,
,,,1.7600001E-3,5.71999979,
,,,1.8000001E-3,5.73999977,
,,,1.8400002E-3,5.71999979,
,,,1.8800001E-3,5.69999981,
,,,1.9200002E-3,5.69999981,
,,,1.9600000E-3,5.69999981,
,,,2.0000001E-3,5.96000004,
,,,2.0400002E-3,5.92000008,
,,,2.0800000E-3,5.94000006,
,,,2.1200001E-3,5.96000004,
,,,2.1600001E-3,5.94000006,
,,,2.2000002E-3,5.90000010,
,,,2.2400001E-3,5.92000008,
,,,2.2800001E-3,5.94000006,
,,,2.3200002E-3,5.90000010,
,,,2.3600000E-3,5.90000010,
,,,2.4000001E-3,5.92000008,
,,,2.4400002E-3,5.92000008,
,,,2.4800000E-3,5.90000010,
,,,2.5200001E-3,5.92000008,
,,,2.5600002E-3,5.92000008,
,,,2.6000000E-3,5.90000010,
,,,2.6400001E-3,5.92000008,
,,,2.6800002E-3,5.94000006,
,,,2.72000022E-3,5.90000010,
,,,2.76000006E-3,5.90000010,
,,,2.80000013E-3,5.90000010,
,,,2.84000020E-3,5.92000008,
,,,2.88000004E-3,5.94000006,
,,,2.92000012E-3,5.90000010,
,,,2.96000019E-3,5.87999964,
,,,3.00000003E-3,5.90000010,
,,,3.04000010E-3,5.92000008,
,,,3.08000017E-3,5.96000004,
,,,3.12000001E-3,5.94000006,
,,,3.16000008E-3,5.94000006,
,,,3.20000015E-3,5.94000006,
,,,3.23999999E-3,5.90000010,
,,,3.28000006E-3,5.92000008,
,,,3.32000013E-3,5.90000010,
,,,3.35999997E-3,5.87999964,
,,,3.40000005E-3,5.94000006,
,,,3.44000012E-3,5.92000008,
,,,3.48000019E-3,5.90000010,
,,,3.52000003E-3,5.90000010,
,,,3.56000010E-3,5.92000008,
,,,3.60000017E-3,5.94000006,
,,,3.64000001E-3,5.94000006,
,,,3.68000008E-3,5.92000008,
,,,3.72000015E-3,5.92000008,
,,,3.75999999E-3,5.92000008,
,,,3.80000006E-3,5.92000008,
,,,3.84000014E-3,5.92000008,
,,,3.87999997E-3,5.94000006,
,,,3.92000005E-3,5.92000008,
,,,3.95999989E-3,5.90000010,
,,,4.00000019E-3,6.09999990,
,,,4.04000003E-3,6.11999989,
,,,4.07999987E-3,6.11999989,
,,,4.12000017E-3,6.11999989,
,,,4.16000001E-3,6.09999990,
,,,4.19999985E-3,6.11999989,
,,,4.24000015E-3,6.11999989,
,,,4.27999999E-3,6.11999989,
,,,4.32000030E-3,6.11999989,
,,,4.36000014E-3,6.13999987,
,,,4.39999998E-3,6.09999990,
,,,4.44000028E-3,6.07999992,
,,,4.48000012E-3,6.09999990,
,,,4.51999996E-3,6.11999989,
,,,4.56000026E-3,6.11999989,
,,,4.60000010E-3,6.11999989,
,,,4.63999994E-3,6.09999990,
,,,4.68000025E-3,6.09999990,
,,,4.72000008E-3,6.11999989,
,,,4.75999992E-3,6.09999990,
,,,4.80000023E-3,6.13999987,
,,,4.84000007E-3,6.15999985,
,,,4.87999991E-3,6.05999994,
,,,4.92000021E-3,6.09999990,
,,,4.96000005E-3,6.13999987,
,,,4.99999989E-3,6.11999989,
,,,5.04000019E-3,6.09999990,
,,,5.08000003E-3,6.11999989,
,,,5.11999987E-3,6.09999990,
,,,5.16000018E-3,6.13999987,
,,,5.20000001E-3,6.11999989,
,,,5.23999985E-3,6.07999992,
,,,5.28000016E-3,6.11999989,
,,,5.32000000E-3,6.11999989,
,,,5.35999984E-3,6.11999989,
,,,5.40000014E-3,6.11999989,
,,,5.43999998E-3,6.09999990,
,,,5.47999982E-3,6.09999990,
,,,5.52000012E-3,6.09999990,
,,,5.55999996E-3,6.11999989,
,,,5.59999980E-3,6.11999989,
,,,5.64000010E-3,6.09999990,
,,,5.67999994E-3,6.13999987,
,,,5.72000025E-3,6.11999989,
,,,5.76000009E-3,6.11999989,
,,,5.79999993E-3,6.09999990,
,,,5.84000023E-3,6.11999989,
,,,5.88000007E-3,6.09999990,
,,,5.91999991E-3,6.09999990,
,,,5.96000021E-3,6.11999989,
,,,6.00000005E-3,6.29999971,
,,,6.03999989E-3,6.23999977,
,,,6.08000020E-3,6.31999969,
,,,6.12000003E-3,6.27999973,
,,,6.15999987E-3,6.27999973,
,,,6.20000018E-3,6.27999973,
,,,6.24000002E-3,6.27999973,
,,,6.27999986E-3,6.27999973,
,,,6.32000016E-3,6.31999969,
,,,6.36000000E-3,6.27999973,
,,,6.39999984E-3,6.29999971,
,,,6.44000014E-3,6.23999977,
,,,6.47999998E-3,6.23999977,
,,,6.51999982E-3,6.27999973,
,,,6.56000013E-3,6.27999973,
,,,6.59999996E-3,6.29999971,
,,,6.63999980E-3,6.27999973,
,,,6.68000011E-3,6.25999975,
,,,6.71999995E-3,6.27999973,
,,,6.75999979E-3,6.29999971,
,,,6.80000009E-3,6.29999971,
,,,6.83999993E-3,6.27999973,
,,,6.88000023E-3,6.29999971,
,,,6.92000007E-3,6.27999973,
,,,6.95999991E-3,6.25999975,
,,,7.00000022E-3,6.27999973,
,,,7.04000005E-3,6.27999973,
,,,7.07999989E-3,6.27999973,
,,,7.12000020E-3,6.27999973,
,,,7.16000004E-3,6.27999973,
,,,7.19999988E-3,6.27999973,
,,,7.24000018E-3,6.25999975,
,,,7.28000002E-3,6.27999973,
,,,7.31999986E-3,6.29999971,
,,,7.36000016E-3,6.29999971,
,,,7.400000002E-3,6.29999971,
,,,7.439999841E-3,6.27999973,
,,,7.480000146E-3,6.25999975,
,,,7.519999985E-3,6.27999973,
,,,7.559999824E-3,6.27999973,
,,,7.600000128E-3,6.27999973,
,,,7.639999967E-3,6.27999973,
,,,7.679999806E-3,6.25999975,
,,,7.720000111E-3,6.27999973,
,,,7.759999949E-3,6.25999975,
,,,7.799999788E-3,6.27999973,
,,,7.840000093E-3,6.27999973,
,,,7.880000398E-3,6.27999973,
,,,7.919999771E-3,6.27999973,
,,,7.960000075E-3,6.27999973,
,,,8.000000380E-3,6.42000008,
,,,8.039999753E-3,6.44000006,
,,,8.080000058E-3,6.44000006,
,,,8.120000362E-3,6.46000004,
,,,8.159999736E-3,6.42000008,
,,,8.200000040E-3,6.42000008,
,,,8.240000345E-3,6.42000008,
,,,8.279999718E-3,6.44000006,
,,,8.320000023E-3,6.46000004,
,,,8.360000327E-3,6.44000006,
,,,8.399999700E-3,6.44000006,
,,,8.440000005E-3,6.44000006,
,,,8.480000310E-3,6.39999962,
,,,8.519999683E-3,6.42000008,
,,,8.559999987E-3,6.42000008,
,,,8.600000292E-3,6.44000006,
,,,8.639999665E-3,6.42000008,
,,,8.679999970E-3,6.39999962,
,,,8.720000274E-3,6.46000004,
,,,8.759999648E-3,6.42000008,
,,,8.799999952E-3,6.44000006,
,,,8.840000257E-3,6.46000004,
,,,8.879999630E-3,6.44000006,
,,,8.919999935E-3,6.44000006,
,,,8.960000239E-3,6.44000006,
,,,8.999999613E-3,6.39999962,
,,,9.039999917E-3,6.42000008,
,,,9.080000222E-3,6.46000004,
,,,9.119999595E-3,6.42000008,
,,,9.159999900E-3,6.39999962,
,,,9.200000204E-3,6.46000004,
,,,9.239999577E-3,6.39999962,
,,,9.279999882E-3,6.44000006,
,,,9.320000187E-3,6.46000004,
,,,9.359999560E-3,6.46000004,
,,,9.399999864E-3,6.44000006,
,,,9.440000169E-3,6.42000008,
,,,9.479999542E-3,6.48000002,
,,,9.519999847E-3,6.42000008,
